{
  "pluginList": [
    "hadynz/obsidian-sidekick"
  ],
  "pluginSubListFrozenVersion": [],
  "themesList": [],
  "updateAtStartup": true,
  "updateThemesAtStartup": false,
  "ribbonIconEnabled": true,
  "loggingEnabled": false,
  "loggingPath": "BRAT-log",
  "loggingVerboseEnabled": false,
  "debuggingMode": true,
  "notificationsEnabled": true
}